…
**TASK: Above, we created the table `participants` and `stimuli`. Combine these two tables to create a table `trials` which creates all the possible trials in an experiment where each participant sees each stimulus once. The resulting table should have 60 rows. Before combining the tables, remove the column named `age` from `participants`.**


<div class='webex-solution'><button>Solution</button>



```
## # A tibble: 60 × 3
##       id word   cond       
##    <int> <chr>  <chr>      
##  1     1 red    congruent  
##  2     1 red    incongruent
##  3     1 green  congruent  
##  4     1 green  incongruent
##  5     1 blue   congruent  
##  6     1 blue   incongruent
##  7     1 yellow congruent  
##  8     1 yellow incongruent
##  9     1 purple congruent  
## 10     1 purple incongruent
## # ℹ 50 more rows
```
…
#### Inner join with `dplyr::inner_join()`

Sometimes what you need to do is combine information from two tables but you don't want all possible combinations; rather, you want to keep the rows from both tables that match on certain 'key' values.

For example, in the `participants` table we have each participant's age. If we wanted to combine that information with the information in `trials` (e.g., in order to analyze Stroop interference across age), then we'd need a way to get the `age` variable into `trials`. For this we can use an `inner_join()`, specifying the `key` column in the `by` argument to the function.


```r
participants |>
  inner_join(trials, by = join_by(id))
```

```
## # A tibble: 60 × 4
##       id   age word   cond       
##    <int> <int> <chr>  <chr>      
##  1     1    27 red    congruent  
##  2     1    27 red    incongruent
##  3     1    27 green  congruent  
##  4     1    27 green  incongruent
##  5     1    27 blue   congruent  
##  6     1    27 blue   incongruent
##  7     1    27 yellow congruent  
##  8     1    27 yellow incongruent
##  9     1    27 purple congruent  
## 10     1    27 purple incongruent
## # ℹ 50 more rows
```
…
