…
Then you will merge together the information in the three tables, and calculate the response variable according to the model formula above.

## Generate a sample of stimuli

Let's randomly generate our 50 items. Create a tibble called `item` like the one below, where `iri` are the by-item random intercepts (drawn from a normal distribution with variance $\omega_{00}^2$ = `iri_sd^2`).  Half of the words are of type NOUN (`cond` = -.5) and half of type VERB (`cond` = .5).




```
## # A tibble: 50 × 3
##    item_id  cond     iri
##      <int> <dbl>   <dbl>
##  1       1  -0.5 -217.  
##  2       2   0.5  -77.9 
##  3       3  -0.5  -96.9 
##  4       4   0.5   40.4 
##  5       5  -0.5   28.0 
##  6       6   0.5  160.  
##  7       7  -0.5   -4.45
##  8       8   0.5  -83.9 
##  9       9  -0.5 -121.  
## 10      10   0.5  -12.1 
## # ℹ 40 more rows
```
…
